{
  "basics": {
    "name": "Francesco Franchina",
    "label": "Data scientist & Web Developer",
    "email": "me@ffranchina.it",
    "phone": "",
    "website": "",
    "summary": "Born in 1992, I am a curious and lively person since childhood. The passion for computer science came out during the school along with life sciences and maths, passions that found their intersection in the project developed as bachelor thesis. After working for some years as full stack developer, I decided to specialize into Machine Learning and data analysis. During the master course I fell in love with complex systems and agent based simulations, powerful tools to solve challenging problems both inside and outside of academia. I like to work on innovative and stimulating projects that are intriguing from technical or design point of view.",
    "location": {
      "address": "",
      "postalCode": "",
      "city": "Messina",
      "countryCode": "IT",
      "region": ""
    },
    "profiles": []
  },
  "work": [
    {
      "company": "Freelance",
      "position": "Data engineer",
      "startDate": "2020-08-04",
      "endDate": "",
      "highlights": [
        "Design and development of IoT sensors for smart vehicles",
        "Design and development of Big Data pipeline for real-time data collection and analytics",
        "Design of an app backend that delivers financial consultation"
      ]
    },
    {
      "company": "Freelance",
      "position": "Web developer",
      "startDate": "2019-04-20",
      "endDate": "",
      "highlights": [
        "Creation of Spuntì portal for Bolton Food S.p.A.",
        "Creation of VinciSuprema contest portal for Cesare Fiorucci S.p.A.",
        "Development of the knowledge-base platform for the Erasmus+ project Outside",
        "Development of the knowledge-base platform for the Erasmus+ project YAB",
        "Development of the mobile app and backend for the Erasmus+ project Hi-Ability",
        "Development of the frontend and backend for the Erasmus+ project ADILE",
        "Development of a Self-Assessment Tool for the Erasmus+ project ONAT4All",
        "Development of a Self-Assessment Tool for the Erasmus+ project Business2030"
      ]
    },
    {
      "company": "Istituto di Tecnologie Avanzate per l'Energia - CNR",
      "position": "Data Scientist",
      "website": "http://www.itae.cnr.it/",
      "startDate": "2022-05-01",
      "endDate": "2023-04-30",
      "location": {
        "city": "Messina",
        "countryCode": "IT"
      },
      "highlights": [
        "Multi-agent complex systems applied to SmartGrids",
        "Design of machine learning models",
        "Time series analysis and forecast",
        "Data Engineering for HPC systems"
      ]
    },
    {
      "company": "ETX Capital",
      "position": "Senior Backend Developer",
      "website": "https://www.etxcapital.com/",
      "startDate": "2021-09-16",
      "endDate": "2022-03-11",
      "location": {
        "city": "London",
        "countryCode": "UK"
      },
      "highlights": [
        "Working on the backend of Oval, a well-known fintech app",
        "Modernise a very large Python codebase",
        "Usage of different best-in-class tools and practices",
        "Highly international environment"
      ]
    },
    {
      "company": "Istituto di BioFisica - CNR",
      "position": "Full stack developer",
      "website": "http://www.pa.ibf.cnr.it/",
      "startDate": "2016-06-01",
      "endDate": "2016-12-31",
      "location": {
        "city": "Palermo",
        "countryCode": "IT"
      },
      "highlights": [
        "Unit testing and porting of scientific libraries",
        "Managing supercomputer tasks at CINECA",
        "UI/UX designer for scientific web platforms",
        "Working within the Human Brain Project"
      ]
    },
    {
      "company": "Libera Inc.",
      "position": "Consultant developer",
      "website": "https://www.libera.com/",
      "startDate": "2015-10-01",
      "endDate": "2015-12-31",
      "location": {
        "city": "Jamestown",
        "countryCode": "US",
        "region": "NY"
      },
      "highlights": [
        "Frontent developer",
        ".NET backend developer"
      ]
    },
    {
      "company": "Seed S.r.l.",
      "position": "Full stack developer",
      "website": "http://www.webseed.it/",
      "startDate": "2014-09-08",
      "endDate": "2016-04-25",
      "location": {
        "city": "Messina",
        "countryCode": "IT"
      },
      "highlights": [
        "Backend developer and database maintainer",
        "Frontend developer and UX designer",
        "Server management (services and networking)",
        "Wordpress plugins and themes developer",
        "Versioning and Continuous Integration"
      ]
    }
  ],
  "education": [
    {
      "institution": "Università degli Studi di Trieste",
      "website": "http://units.it/",
      "area": "Data science",
      "studyType": "Master degree",
      "startDate": "2017-10-01",
      "endDate": "2020-04-24",
      "location": {
        "city": "Trieste",
        "countryCode": "IT"
      },
      "summary": "Thesis \"Adversarial Learning of Robust and Safe Controllers for Cyber-Physical Systems\" (110/110)",
      "courses": ["Mathematics", "Statistics", "Machine learning", "Neural networks", "Generative Adversarial Networks", "High performance computing", "Computer Vision"]
    },
    {
      "institution": "Università degli Studi di Messina",
      "website": "http://unime.it/",
      "area": "Computer science",
      "studyType": "Bachelor degree",
      "startDate": "2011-10-01",
      "endDate": "2014-12-10",
      "location": {
        "city": "Messina",
        "countryCode": "IT"
      },
      "summary": "Thesis \"Fractal interpolation of the movement trajectory of Amoeba\" (110/110 cum laude)",
      "courses": ["Programming", "Databases", "Operating systems", "Networks", "Mathematics", "Physics"]
    },
    {
      "institution": "Institut für Mathematik der Universität Potsdam",
      "website": "https://www.math.uni-potsdam.de/",
      "area": "Bayesian field",
      "studyType": "Thesis development",
      "startDate": "2014-04-28",
      "endDate": "2014-06-02",
      "location": {
        "city": "Potsdam",
        "countryCode": "DE"
      },
      "courses": ["Bayesian Inference", "Fractals", "Scientific programming"]
    },
    {
      "institution": "Liceo scientifico \"G. Seguenza\"",
      "area": "Scientific field",
      "studyType": "High school degree",
      "startDate": "2006-09-01",
      "endDate": "2011-07-01",
      "location": {
        "city": "Messina",
        "countryCode": "IT"
      },
      "courses": ["General knowledge", "Philosophy"]
    }
  ],
  "experiences": [
    {
      "organization": "FabLab Messina",
      "position": "Team member",
      "website": "http://fablabmessina.it/",
      "startDate": "2012-10-01",
      "endDate": "",
      "location": {
        "city": "Messina",
        "countryCode": "IT"
      },
      "highlights": [
        "Community manager",
        "Manager of the Erasmus+ CARES project",
        "Web master of the official website",
        "Do It Yourself projects"
      ]
    },
    {
      "organization": "Linux Day 2022 Messina",
      "position": "Speaker about Open Source diffusion models",
      "website": "https://fablabmessina.it/wp-content/uploads/2022/10/LD22-full.png",
      "startDate": "2022-10-22",
      "endDate": "2022-10-22",
      "location": {
        "city": "Messina",
        "countryCode": "IT",
        "region": ""
      },
      "highlights": []
    },
    {
      "organization": "Design Your Job - Erasmus+ programme",
      "position": "Web design course supervisor",
      "startDate": "2019-11-22",
      "endDate": "2019-11-25",
      "location": {
        "city": "Novi Sad",
        "countryCode": "RS",
        "region": ""
      },
      "highlights": []
    },
    {
      "organization": "Social Hackathon Umbria",
      "position": "Selected Team leader",
      "website": "http://www.socialhackathonumbria.info/",
      "startDate": "2019-07-04",
      "endDate": "2019-07-07",
      "location": {
        "city": "Foligno",
        "countryCode": "IT",
        "region": "PG"
      },
      "highlights": []
    },
    {
      "organization": "La Scuola Open Source",
      "position": "Selected co-designer of processes",
      "website": "http://www.lascuolaopensource.xyz/",
      "startDate": "2017-07-23",
      "endDate": "2017-07-31",
      "location": {
        "city": "Bari",
        "countryCode": "IT",
        "region": ""
      },
      "highlights": []
    },
    {
      "organization": "Trasformatorio",
      "position": "Selected media artist",
      "website": "http://trasformatorio.net/",
      "startDate": "2017-05-01",
      "endDate": "2017-05-08",
      "location": {
        "city": "Scaletta Zanclea",
        "countryCode": "IT",
        "region": "ME"
      },
      "summary": "",
      "highlights": []
    }
  ],
  "awards": [
    {
      "title": "Scholarship \"Training the Specialists of the Future\"",
      "date": "2017-12-19",
      "awarder": "University of Trieste"
    },
    {
      "title": "First place in the civic hackaton #OpenGov",
      "date": "2017-03-11",
      "awarder": "Municipality of Messina"
    },
    {
      "title": "Awarded student \"Messaggeri della Conoscenza\"",
      "date": "2014-03-01",
      "awarder": "University of Messina"
    }
  ],
  "publications": [
    {
      "name": "Adversarial Learning of Robust and Safe Controllers for Cyber-Physical Systems",
      "journal": "arXiv:2009.02019",
      "website": "https://doi.org/10.48550/arXiv.2009.02019",
      "releaseDate": "2020-09-04",
      "summary": "We introduce a novel learning-based approach to synthesize safe and robust controllers for autonomous Cyber-Physical Systems. The method learns two Neural Networks that act in an adversarial setting: the first one aims at generating troubling scenarios for the controller, while the second one aims at enforcing the safety constraints."
    },
    {
      "name": "Data-driven computational modeling of CA1 hippocampal principal cells and interneurons",
      "journal": "BMC Neuroscience 2017, 18 (Suppl 1):P177",
      "website": "https://doi.org/10.1186/s12868-017-0372-1",
      "releaseDate": "2017-08-18",
      "summary": "We present and discuss data-driven models of biophysically detailed hippocampal CA1 pyramidal cells and interneurons of a rat. The results have been obtained by using the Brain Simulation Platform (BSP) of the Human Brain Project and two open-source packages, the Electrophys Feature Extraction Library (eFEL) and the Blue Brain Python Optimization Library (BluePyOpt)."
    }
  ],
  "skills": [
    {
      "name": "Web Development",
      "level": "Master",
      "keywords": [
        "HTML5",
        "CSS3",
        "SVG",
        "Javascript ES6",
        "Svelte",
        "Tailwind",
        "Fullstack",
        "PWA",
        "Microsevices",
        "REST APIs"
      ]
    },
    {
      "name": "Programming",
      "level": "Master",
      "keywords": [
        "Python",
        "C/C++",
        "Java",
        "Javascript",
        "PHP",
        "Unit testing",
        "Parallel systems"
      ]
    },
    {
      "name": "Sysadmin",
      "level": "Master",
      "keywords": [
        "Unix",
        "Bash",
        "Docker",
        "DevOps",
        "Distributed systems",
        "HPC",
        "Postgres",
        "Databases"
      ]
    },
    {
      "name": "Data Science",
      "level": "Master",
      "keywords": [
        "Data analysis",
        "Big Data",
        "Time-series analysis",
        "Modelling",
        "Validation",
        "Jupyter notebook"
      ]
    },
    {
      "name": "Machine Learning",
      "level": "Advanced",
      "keywords": [
        "Classical methods",
        "Deep Learning",
        "PyTorch",
        "Reinforcement Learning",
        "NLP",
        "GAN"
      ]
    },
    {
      "name": "Dataviz",
      "level": "Advanced",
      "keywords": [
        "General principles",
        "d3.js",
        "Matplotlib/Bokeh",
        "QGIS",
        "Dashboards"
      ]
    },
    {
      "name": "Do It Yourself",
      "level": "Advanced",
      "keywords": [
        "Lasercutting",
        "Milling",
        "3D Printing"
      ]
    },
    {
      "name": "Embedded Programming",
      "level": "Advanced",
      "keywords": [
        "IoT",
        "Bluetooth LE",
        "ARM",
        "RTOS",
        "Arduino",
        "ESP32"
      ]
    },
    {
      "name": "Computer Vision",
      "level": "Intermediate",
      "keywords": [
        "Classical approaches",
        "Machine Leaning"
      ]
    }
  ],
  "languages": [
    {
      "language": "Italian",
      "fluency": "Native speaker"
    },
    {
      "language": "English",
      "fluency": "Advanced"
    },
    {
      "language": "Spanish",
      "fluency": "Beginner"
    }
  ],
  "interests": [
    {
      "name": "Biology",
      "keywords": [
        "Cognitive neuroscience",
        "Ethology",
        "Physiology",
        "Complex systems",
        "Botany"
      ]
    },
    {
      "name": "Philosophy",
      "keywords": [
        "Ethics",
        "Sociology",
        "Open Source"
      ]
    },
    {
      "name": "Art & Design",
      "keywords": [
        "Blender",
        "3D Modelling",
        "Procedural Methods",
        "Typography",
        "Music"
      ]
    }
  ]
}
